{
    "misc": [
       {
            "name": "niriwm"
        },
        {
            "url": "https://github.com/YaLTeR/niri/wiki/Xwayland"
        }
        {
            "name": "niriwm",
            "url": "https://github.com/yalter/niri"
        }
    ]
}
